ProductID,Front,Back,shoulder-width,raglan-sleeve-length,body-width,length,slit
29324611,http://image5.brandear.jp/image1/0/29324611_2.jpg?date=20190522211030,http://image5.brandear.jp/image1/0/29324611_3.jpg?date=20190522211030,35,55.5,38.5,83,
29352100,http://image5.brandear.jp/image1/0/29352100_1.jpg?date=20190522211030,http://image5.brandear.jp/image1/0/29352100_2.jpg?date=20190522211030,,72,58,67,
29505219,http://image5.brandear.jp/image1/0/29505219_1.jpg?date=20190522211030,http://image5.brandear.jp/image1/0/29505219_2.jpg?date=20190522211030,40,48,43,78,
29720335,http://image5.brandear.jp/image1/0/29720335_2.jpg?date=20190522211030,http://image5.brandear.jp/image1/0/29720335_3.jpg?date=20190522211030,37,60,46,109,
29779390,http://image5.brandear.jp/image1/0/29779390_1.jpg?date=20190522211030,http://image5.brandear.jp/image1/0/29779390_2.jpg?date=20190522211030,32,58,39,87,
29812940,http://image5.brandear.jp/image1/0/29812940_1.jpg?date=20190522211030,http://image5.brandear.jp/image1/0/29812940_2.jpg?date=20190522211030,33.5,49.5,41.5,88.5,
29854128,http://image5.brandear.jp/image1/0/29854128_2.jpg?date=20190522211030,http://image5.brandear.jp/image1/0/29854128_3.jpg?date=20190522211030,30,33.5,40,94.5,